{
  "count": 3,
  "next": "https://sandbox.elationemr.com/api/2.0/problems/?limit=1&offset=1&patient=151523299033089",
  "previous": null,
  "results": [
    {
      "id": 90904199211,
      "description": "Broken arm and finger",
      "status": "Active",
      "synopsis": "Rick broke right arm jamming to never gonna give you up.\nLater discovered Rick broke his finger.",
      "start_date": "2019-03-26",
      "resolved_date": null,
      "dx": [
        {
          "icd9": [
            "818.0"
          ],
          "icd10": [
            "S42.309A"
          ],
          "snomed": "23406007"
        },
        {
          "icd9": [
            "816.00"
          ],
          "icd10": [
            "S62.609A"
          ],
          "snomed": "18171007"
        }
      ],
      "patient": 151523299033089,
      "created_date": "2019-03-26T21:35:04Z",
      "deleted_date": null
    }
  ]
}